{
  "name": "tau_sf_eta_DeepTau2017v2p1VSmu_2017ReReco",
  "description": "mu -> tau_h fake rate SFs for DeepTau2017v2p1VSmu",
  "version": 0,
  "inputs": [
    { "name": "eta",
      "type": "real",
      "description": "Reconstructed tau eta"
    },
    { "name": "genmatch",
      "type": "int",
      "description": "genmatch: 0 or 6 = unmatched or jet, 1 or 3 = electron, 2 or 4 = muon, 5 = real tau"
    },
    { "name": "wp",
      "type": "string",
      "description": "DeepTau2017v2p1VSmu working point: VLoose-Tight"
    },
    { "name": "syst",
      "type": "string",
      "description": "Systematic variation: 'nom', 'up', 'down'"
    }
  ],
  "output": { "name": "weight", "type": "real" },
  "data": {
    "nodetype": "transform",
    "input": "genmatch",
    "rule": {
      "nodetype": "category",
      "input": "genmatch",
      "content": [
        { "key": 0, "value": 0.0 },
        { "key": 1, "value": 0.0 },
        { "key": 2, "value": 2.0 },
        { "key": 3, "value": 0.0 },
        { "key": 4, "value": 2.0 },
        { "key": 5, "value": 0.0 },
        { "key": 6, "value": 0.0 }
      ]
    },
    "content": {
      "nodetype": "category",
      "input": "genmatch",
      "content": [
        { "key": 0, "value": 1.0 },
        { "key": 2,
          "value": {
            "nodetype": "transform",
            "input": "eta",
            "rule": {
              "nodetype": "formula",
              "expression": "abs(x)",
              "parser": "TFormula",
              "variables": [ "eta" ]
            },
            "content": {
              "nodetype": "category",
              "input": "wp",
              "content": [
                { "key": "VLoose",
                  "value": {
                    "nodetype": "binning",
                    "input": "eta",
                    "edges": [ 0.0, 0.4, 0.8, 1.2, 1.7, 2.3 ],
                    "content": [
                      { "nodetype": "category",
                        "input": "syst",
                        "content": [
                          { "key": "nom", "value": 1.09354 },
                          { "key": "up", "value": 1.16878 },
                          { "key": "down", "value": 1.0183 }
                        ]
                      },
                      { "nodetype": "category",
                        "input": "syst",
                        "content": [
                          { "key": "nom", "value": 0.90726 },
                          { "key": "up", "value": 0.9814 },
                          { "key": "down", "value": 0.83311 }
                        ]
                      },
                      { "nodetype": "category",
                        "input": "syst",
                        "content": [
                          { "key": "nom", "value": 0.93582 },
                          { "key": "up", "value": 1.01312 },
                          { "key": "down", "value": 0.85851 }
                        ]
                      },
                      { "nodetype": "category",
                        "input": "syst",
                        "content": [
                          { "key": "nom", "value": 0.73507 },
                          { "key": "up", "value": 0.86273 },
                          { "key": "down", "value": 0.60741 }
                        ]
                      },
                      { "nodetype": "category",
                        "input": "syst",
                        "content": [
                          { "key": "nom", "value": 4.61037 },
                          { "key": "up", "value": 4.95463 },
                          { "key": "down", "value": 4.26611 }
                        ]
                      }
                    ],
                    "flow": "clamp"
                  }
                },
                { "key": "Loose",
                  "value": {
                    "nodetype": "binning",
                    "input": "eta",
                    "edges": [ 0.0, 0.4, 0.8, 1.2, 1.7, 2.3 ],
                    "content": [
                      { "nodetype": "category",
                        "input": "syst",
                        "content": [
                          { "key": "nom", "value": 1.0534 },
                          { "key": "up", "value": 1.16866 },
                          { "key": "down", "value": 0.93815 }
                        ]
                      },
                      { "nodetype": "category",
                        "input": "syst",
                        "content": [
                          { "key": "nom", "value": 0.89582 },
                          { "key": "up", "value": 1.03301 },
                          { "key": "down", "value": 0.75863 }
                        ]
                      },
                      { "nodetype": "category",
                        "input": "syst",
                        "content": [
                          { "key": "nom", "value": 0.92402 },
                          { "key": "up", "value": 1.06597 },
                          { "key": "down", "value": 0.78207 }
                        ]
                      },
                      { "nodetype": "category",
                        "input": "syst",
                        "content": [
                          { "key": "nom", "value": 0.90501 },
                          { "key": "up", "value": 1.17599 },
                          { "key": "down", "value": 0.63403 }
                        ]
                      },
                      { "nodetype": "category",
                        "input": "syst",
                        "content": [
                          { "key": "nom", "value": 5.61838 },
                          { "key": "up", "value": 6.13238 },
                          { "key": "down", "value": 5.10439 }
                        ]
                      }
                    ],
                    "flow": "clamp"
                  }
                },
                { "key": "Medium",
                  "value": {
                    "nodetype": "binning",
                    "input": "eta",
                    "edges": [ 0.0, 0.4, 0.8, 1.2, 1.7, 2.3 ],
                    "content": [
                      { "nodetype": "category",
                        "input": "syst",
                        "content": [
                          { "key": "nom", "value": 1.0397 },
                          { "key": "up", "value": 1.18972 },
                          { "key": "down", "value": 0.88968 }
                        ]
                      },
                      { "nodetype": "category",
                        "input": "syst",
                        "content": [
                          { "key": "nom", "value": 0.78051 },
                          { "key": "up", "value": 0.97879 },
                          { "key": "down", "value": 0.58222 }
                        ]
                      },
                      { "nodetype": "category",
                        "input": "syst",
                        "content": [
                          { "key": "nom", "value": 0.80508 },
                          { "key": "up", "value": 1.00983 },
                          { "key": "down", "value": 0.60032 }
                        ]
                      },
                      { "nodetype": "category",
                        "input": "syst",
                        "content": [
                          { "key": "nom", "value": 1.00875 },
                          { "key": "up", "value": 1.38127 },
                          { "key": "down", "value": 0.63622 }
                        ]
                      },
                      { "nodetype": "category",
                        "input": "syst",
                        "content": [
                          { "key": "nom", "value": 4.25194 },
                          { "key": "up", "value": 4.90939 },
                          { "key": "down", "value": 3.59449 }
                        ]
                      }
                    ],
                    "flow": "clamp"
                  }
                },
                { "key": "Tight",
                  "value": {
                    "nodetype": "binning",
                    "input": "eta",
                    "edges": [ 0.0, 0.4, 0.8, 1.2, 1.7, 2.3 ],
                    "content": [
                      { "nodetype": "category",
                        "input": "syst",
                        "content": [
                          { "key": "nom", "value": 0.97019 },
                          { "key": "up", "value": 1.12255 },
                          { "key": "down", "value": 0.81783 }
                        ]
                      },
                      { "nodetype": "category",
                        "input": "syst",
                        "content": [
                          { "key": "nom", "value": 0.64328 },
                          { "key": "up", "value": 0.89117 },
                          { "key": "down", "value": 0.39538 }
                        ]
                      },
                      { "nodetype": "category",
                        "input": "syst",
                        "content": [
                          { "key": "nom", "value": 0.66353 },
                          { "key": "up", "value": 0.91934 },
                          { "key": "down", "value": 0.40771 }
                        ]
                      },
                      { "nodetype": "category",
                        "input": "syst",
                        "content": [
                          { "key": "nom", "value": 1.08482 },
                          { "key": "up", "value": 1.53826 },
                          { "key": "down", "value": 0.63138 }
                        ]
                      },
                      { "nodetype": "category",
                        "input": "syst",
                        "content": [
                          { "key": "nom", "value": 4.1917 },
                          { "key": "up", "value": 5.00339 },
                          { "key": "down", "value": 3.38001 }
                        ]
                      }
                    ],
                    "flow": "clamp"
                  }
                }
              ]
            }
          }
        }
      ]
    }
  }
}